{
  "users": [
    {
      "id": "1",
      "name": "Samiran",
      "phone": "9876543211"
    },
    {
      "id": "vx9Q60G"
    },
    {
      "id": "PHqnZ9Y"
    },
    {
      "id": "pdKEI8L"
    },
    {
      "id": "VL8e5JT",
      "name": "ccccc",
      "phone": "sssss"
    },
    {
      "id": "8Rn7fwt",
      "name": "dfghj",
      "phone": "asdfg"
    },
    {
      "id": "JgXSbYv",
      "name": "chandan",
      "phone": "1111111111"
    },
    {
      "id": "HqQu5Ya",
      "name": "samiran",
      "phone": "2222222222"
    },
    {
      "id": "opGXSbS",
      "name": "dffff",
      "phone": "wwwwwwwwww"
    },
    {
      "id": "q2l_6yJ",
      "name": "ch",
      "phone": 2222222222
    },
    {
      "id": "ywyW5oa",
      "name": "gh",
      "phone": 3333333333
    },
    {
      "id": "xUqD_Oa",
      "name": "kamal",
      "phone": 3333333333
    },
    {
      "id": "Hexg7Mm",
      "name": "",
      "phone": ""
    },
    {
      "id": "sqH1d0o",
      "name": "aaaaaaa",
      "phone": "7777777777"
    }
  ]
}