[
    {
	  "vehicle_name":"toto",
      "vehicle_id":1,
      "vehicle_logo":"assets/imgs/toto.png",
	  "vehicle_time":"2 mins",
	  "vehicle_fair":"500"
	},
	{
	  "vehicle_name":"auto",
      "vehicle_id":2,
      "vehicle_logo":"assets/imgs/auto.png",
	  "vehicle_time":"5 mins",
	  "vehicle_fair":"100"
	},
    {
	  "vehicle_name":"loto",
      "vehicle_id":3,
      "vehicle_logo":"assets/imgs/loto.png",
	  "vehicle_time":"10 mins",
	  "vehicle_fair":"200"
	},
    {
	  "vehicle_name":"maruti",
      "vehicle_id":4,
      "vehicle_logo":"assets/imgs/maruti.png",
	  "vehicle_time":"15 mins",
	  "vehicle_fair":"300"
	},
    {
	  "vehicle_name":"sumo",
      "vehicle_id":5,
      "vehicle_logo":"assets/imgs/sumo.png",
	  "vehicle_time":"20 mins",
	  "vehicle_fair":"400"
	}
]